<?xml version="1.0" encoding="utf-8"?>
<!-- Generator: Adobe Illustrator 17.0.2, SVG Export Plug-In . SVG Version: 6.00 Build 0)  -->
<!DOCTYPE svg PUBLIC "-//W3C//DTD SVG 1.1//EN" "http://www.w3.org/Graphics/SVG/1.1/DTD/svg11.dtd">
<svg version="1.1" id="Laag_1" xmlns="http://www.w3.org/2000/svg" xmlns:xlink="http://www.w3.org/1999/xlink" x="0px" y="0px"
	 width="104.338px" height="24.75px" viewBox="0 0 104.338 24.75" enable-background="new 0 0 104.338 24.75" xml:space="preserve">
<g>
	<path fill="#FFFFFF" d="M1.09,2.045h2.537l8.085,12.109l8.083-12.109h2.538v22.191h-2.506V6.263L11.743,18.15h-0.126L3.532,6.293
		v17.943H1.09V2.045z"/>
	<path fill="#FFFFFF" d="M26.674,1.571h2.788v2.692h-2.788V1.571z M26.831,7.846h2.441v16.39h-2.441V7.846z"/>
	<path fill="#FFFFFF" d="M33.363,7.846h2.441v2.853c0.548-0.887,1.268-1.642,2.153-2.265c0.889-0.624,2.041-0.938,3.457-0.938
		c0.993,0,1.877,0.16,2.646,0.478c0.772,0.315,1.428,0.765,1.966,1.346c0.541,0.582,0.951,1.273,1.236,2.077
		c0.287,0.803,0.429,1.689,0.429,2.664v10.176h-2.44v-9.553c0-1.519-0.392-2.722-1.173-3.607c-0.783-0.886-1.901-1.329-3.361-1.329
		c-0.699,0-1.349,0.124-1.95,0.365c-0.601,0.243-1.123,0.59-1.57,1.045c-0.442,0.453-0.787,0.997-1.031,1.63
		c-0.242,0.631-0.362,1.326-0.362,2.088v9.361h-2.441C33.363,24.237,33.363,7.846,33.363,7.846z"/>
	<path fill="#FFFFFF" d="M56.79,24.521c-0.654,0-1.27-0.086-1.838-0.254c-0.57-0.168-1.062-0.438-1.473-0.809
		c-0.412-0.368-0.734-0.852-0.968-1.443c-0.231-0.591-0.348-1.302-0.348-2.123V10H49.88V7.846h2.282V2.901h2.44v4.945h5.201v2.156
		h-5.201v9.55c0,1.013,0.254,1.718,0.763,2.119c0.506,0.397,1.173,0.599,1.997,0.599c0.422,0,0.818-0.039,1.188-0.119
		c0.369-0.077,0.763-0.219,1.188-0.418v2.094c-0.426,0.232-0.873,0.406-1.348,0.521C57.915,24.462,57.382,24.521,56.79,24.521z"/>
	<path fill="#FFFFFF" d="M62.75,1.093h2.442v23.144H62.75V1.093z"/>
	<path fill="#FFFFFF" d="M83.881,24.061h-2.716v-2.207h-0.066c-1.395,1.765-3.262,2.648-5.502,2.648
		c-4.688,0-7.644-3.977-7.644-8.391c0-4.55,2.887-8.455,7.677-8.455c2.174,0,4.908,0.727,6.413,2.657
		c1.38,1.77,1.42,2.865,1.593,3.787c0.318,1.697,0.213,2.631,0.213,4.707C83.849,20.646,83.881,24.061,83.881,24.061z
		 M70.297,15.941c0,3.297,1.935,6.416,5.519,6.416c3.692,0,5.627-2.978,5.627-6.381c0-3.364-2.112-6.093-5.664-6.093
		C72.448,9.885,70.297,12.789,70.297,15.941z"/>
	<path fill="#FFFFFF" d="M95.897,24.586c-0.763,0-1.459-0.098-2.096-0.287c-0.631-0.189-1.201-0.441-1.712-0.762
		c-0.506-0.314-0.965-0.686-1.375-1.107c-0.415-0.422-0.78-0.865-1.097-1.332v3.139h-2.439V1.093h2.439v10.051
		c0.338-0.485,0.715-0.951,1.126-1.396c0.411-0.442,0.873-0.828,1.379-1.156c0.509-0.328,1.073-0.59,1.696-0.792
		c0.621-0.202,1.314-0.304,2.078-0.304c0.971,0,1.928,0.189,2.867,0.57c0.939,0.38,1.78,0.938,2.521,1.668
		c0.739,0.727,1.33,1.613,1.772,2.662c0.446,1.045,0.67,2.245,0.67,3.596v0.066c0,1.33-0.224,2.525-0.67,3.582
		c-0.441,1.058-1.027,1.948-1.756,2.676c-0.73,0.729-1.566,1.293-2.506,1.681C97.856,24.391,96.89,24.586,95.897,24.586z
		 M95.454,22.396c0.781,0,1.525-0.142,2.236-0.428c0.705-0.283,1.317-0.697,1.836-1.236s0.93-1.198,1.236-1.98
		c0.307-0.783,0.461-1.669,0.461-2.662v-0.064c0-0.971-0.154-1.849-0.461-2.631c-0.308-0.78-0.725-1.45-1.252-1.997
		c-0.527-0.549-1.141-0.973-1.839-1.27c-0.696-0.294-1.438-0.442-2.219-0.442c-0.761,0-1.495,0.152-2.206,0.46
		c-0.706,0.305-1.342,0.739-1.9,1.3c-0.559,0.559-1.004,1.226-1.33,1.996c-0.328,0.772-0.492,1.623-0.492,2.552v0.065
		c0,0.952,0.164,1.817,0.492,2.6c0.326,0.781,0.771,1.449,1.33,1.996c0.559,0.549,1.194,0.979,1.9,1.281
		C93.958,22.246,94.692,22.396,95.454,22.396z"/>
</g>
</svg>
