<?xml version="1.0" encoding="UTF-8" standalone="no"?>
<svg width="112px" height="124px" viewBox="0 0 112 124" version="1.1" xmlns="http://www.w3.org/2000/svg" xmlns:xlink="http://www.w3.org/1999/xlink">
    <!-- Generator: Sketch 3.6.1 (26313) - http://www.bohemiancoding.com/sketch -->
    <title>object wijzigen</title>
    <desc>Created with Sketch.</desc>
    <defs></defs>
    <g id="Page-1" stroke="none" stroke-width="1" fill="none" fill-rule="evenodd">
        <g id="object-mutation-relate" transform="translate(-9.000000, -2.000000)">
            <g id="object-wijzigen" transform="translate(9.000000, 2.000000)">
                <path d="M111.453715,89.8452626 C111.260218,92.3553532 110.196001,94.1896226 108.261031,95.348126 L59.2097863,122.572819 C58.2423013,123.345154 57.0813367,123.731316 55.7268577,123.731316 C54.3723787,123.731316 53.2114141,123.345154 52.2439291,122.572819 L3.19268456,95.348126 C1.25771455,94.1896226 0.193497001,92.3553532 0,89.8452626 L0,34.2373799 C0.193497001,31.7272893 1.25771455,29.8930198 3.19268456,28.7345165 L52.2439291,1.50982388 C53.2114141,0.73748831 54.3723787,0.351326319 55.7268577,0.351326319 C57.0813367,0.351326319 58.2423013,0.73748831 59.2097863,1.50982388 L108.261031,28.7345165 C110.196001,29.8930198 111.260218,31.7272893 111.453715,34.2373799 L111.453715,89.8452626 Z" id="-copy-3" fill="#72C4B9"></path>
                <g id="translate-copy" transform="translate(19.000000, 26.614730)" fill="#FFFFFF">
                    <path d="M0,49.5782756 L0,62.8457015 L13.295812,62.8457015 L51.7836888,24.0908522 L38.4878768,10.8234264 L0,49.5782756 L0,49.5782756 Z M61.9304927,13.9657114 C63.3300518,12.5691403 63.3300518,10.4742836 61.9304927,9.07771244 L53.8830275,1.04742836 C52.4834684,-0.349142786 50.3841296,-0.349142786 48.9845705,1.04742836 L42.6865543,7.33199851 L55.9823663,20.5994244 L61.9304927,13.9657114 L61.9304927,13.9657114 Z M31.490081,55.8628458 L24.4922852,62.8457015 L69.9779578,62.8457015 L69.9779578,55.8628458 L31.490081,55.8628458 L31.490081,55.8628458 Z" id="Shape"></path>
                </g>
            </g>
        </g>
    </g>
</svg>